spice/mult_4/src/Mult_4_TB.vcd
$date
	Mon Dec  1 08:44:23 2025
$end
$version
	Icarus Verilog
$end
$timescale
	1ps
$end
$scope module mult_TB $end
$var wire 8 ! result [7:0] $end
$var wire 1 " done $end
$var parameter 32 # PERIOD $end
$var reg 1 $ clk $end
$var reg 1 % init $end
$var reg 4 & op_A [3:0] $end
$var reg 4 ' op_B [3:0] $end
$var reg 1 ( reset $end
$scope module uut $end
$var wire 4 ) A [3:0] $end
$var wire 4 * B [3:0] $end
$var wire 1 $ clk $end
$var wire 1 % init $end
$var wire 1 ( rst $end
$var wire 1 + w_z $end
$var wire 1 , w_sh $end
$var wire 1 - w_reset $end
$var wire 1 . w_add $end
$var wire 4 / w_B [3:0] $end
$var wire 8 0 w_A [7:0] $end
$var wire 8 1 pp [7:0] $end
$var wire 1 " done $end
$scope module acc0 $end
$var wire 1 $ clk $end
$var wire 1 - rst $end
$var wire 1 . add $end
$var wire 8 2 A [7:0] $end
$var reg 8 3 pp [7:0] $end
$upscope $end
$scope module comp0 $end
$var wire 1 + z $end
$var wire 4 4 B [3:0] $end
$var reg 1 5 tmp $end
$upscope $end
$scope module control0 $end
$var wire 1 $ clk $end
$var wire 1 % init $end
$var wire 1 6 lsb_B $end
$var wire 1 ( rst $end
$var wire 1 + z $end
$var parameter 3 7 ADD $end
$var parameter 3 8 CHECK $end
$var parameter 3 9 END $end
$var parameter 3 : SHIFT $end
$var parameter 3 ; START $end
$var reg 1 . add $end
$var reg 4 < count [3:0] $end
$var reg 1 " done $end
$var reg 1 - reset $end
$var reg 1 , sh $end
$var reg 3 = state [2:0] $end
$upscope $end
$scope module lsr0 $end
$var wire 1 $ clk $end
$var wire 4 > in_A [3:0] $end
$var wire 1 - load $end
$var wire 1 , shift $end
$var reg 8 ? s_A [7:0] $end
$upscope $end
$scope module rsr0 $end
$var wire 1 $ clk $end
$var wire 4 @ in_B [3:0] $end
$var wire 1 - load $end
$var wire 1 , shift $end
$var reg 4 A s_B [3:0] $end
$upscope $end
$upscope $end
$scope begin TEST_CASE $end
$upscope $end
$upscope $end
$enddefinitions $end
$comment Show the parameter values. $end
$dumpall
b0 ;
b10 :
b100 9
b1 8
b11 7
b10100 #
$end
#0
$dumpvars
bx A
b11 @
bx ?
b11 >
b0 =
bx <
x6
05
bx 4
b0 3
bx 2
b0 1
bx 0
bx /
0.
0-
0,
0+
b11 *
b11 )
0(
b11 '
b11 &
0%
0$
0"
b0 !
$end
#10000000
b0 <
1-
1$
#20000000
16
1(
b11 0
b11 2
b11 ?
b11 /
b11 4
b11 A
0$
#30000000
1$
#40000000
0(
0$
#50000000
1$
#60000000
0$
#70000000
1$
#80000000
0$
#90000000
1$
#100000000
0$
#110000000
1$
#120000000
0$
#130000000
b1 =
1%
1$
#140000000
0$
#150000000
b11 =
0-
1$
#160000000
0$
#170000000
b10 =
1.
1$
0%
#180000000
b11 !
b11 1
b11 3
0$
#190000000
b1 =
0.
1,
1$
#200000000
b1 /
b1 4
b1 A
b110 0
b110 2
b110 ?
0$
#210000000
b11 =
0,
1$
#220000000
0$
#230000000
b10 =
1.
1$
#240000000
b1001 !
b1001 1
b1001 3
0$
#250000000
b1 =
0.
1,
1$
#260000000
06
1+
15
b1100 0
b1100 2
b1100 ?
b0 /
b0 4
b0 A
0$
#270000000
b10 =
0,
1$
#280000000
0$
#290000000
b100 =
1,
1$
#300000000
b11000 0
b11000 2
b11000 ?
0$
#310000000
b1 <
0,
1"
1$
#320000000
0$
#330000000
b10 <
1$
#340000000
0$
#350000000
b11 <
1$
#360000000
0$
#370000000
b100 <
1$
#380000000
0$
#390000000
b101 <
1$
#400000000
0$
#410000000
b110 <
1$
#420000000
0$
#430000000
b111 <
1$
#440000000
0$
#450000000
b1000 <
1$
#460000000
0$
#470000000
b1001 <
1$
#480000000
0$
#490000000
b0 =
b1010 <
1$
#500000000
0$
#510000000
b0 <
1-
0"
1$
#520000000
16
0+
05
b11 /
b11 4
b11 A
b11 0
b11 2
b11 ?
b0 !
b0 1
b0 3
0$
