spice/tt_um_mult_4/tt_um_mult_4_TB.vcd
$date
	Mon Dec  1 11:55:40 2025
$end
$version
	Icarus Verilog
$end
$timescale
	1ps
$end
$scope module tt_um_mult_4_TB $end
$var wire 1 ! ena_tb $end
$var wire 8 " pp [7:0] $end
$var wire 8 # uio_oe_tb [7:0] $end
$var wire 8 $ uo_out_tb [7:0] $end
$var wire 8 % uio_out_tb [7:0] $end
$var wire 8 & uio_in_tb [7:0] $end
$var wire 8 ' ui_in_tb [7:0] $end
$var wire 1 ( done $end
$var parameter 32 ) PERIOD $end
$var reg 4 * A [3:0] $end
$var reg 4 + B [3:0] $end
$var reg 1 , clk $end
$var reg 1 - init $end
$var reg 1 . rst_n $end
$scope module MUT $end
$var wire 1 , clk $end
$var wire 1 ! ena $end
$var wire 1 . rst_n $end
$var wire 8 / ui_in [7:0] $end
$var wire 8 0 uio_in [7:0] $end
$var wire 8 1 uio_oe [7:0] $end
$var wire 8 2 uo_out [7:0] $end
$var wire 8 3 uio_out [7:0] $end
$var wire 1 4 _unused $end
$var reg 1 5 resetn $end
$scope module mult_4 $end
$var wire 4 6 A [3:0] $end
$var wire 4 7 B [3:0] $end
$var wire 1 , clk $end
$var wire 1 8 init $end
$var wire 1 5 rst $end
$var wire 1 9 w_z $end
$var wire 1 : w_sh $end
$var wire 1 ; w_reset $end
$var wire 1 < w_add $end
$var wire 4 = w_B [3:0] $end
$var wire 8 > w_A [7:0] $end
$var wire 8 ? pp [7:0] $end
$var wire 1 @ done $end
$scope module acc0 $end
$var wire 1 , clk $end
$var wire 1 ; rst $end
$var wire 1 < add $end
$var wire 8 A A [7:0] $end
$var reg 8 B pp [7:0] $end
$upscope $end
$scope module comp0 $end
$var wire 1 9 z $end
$var wire 4 C B [3:0] $end
$var reg 1 D tmp $end
$upscope $end
$scope module control0 $end
$var wire 1 , clk $end
$var wire 1 8 init $end
$var wire 1 E lsb_B $end
$var wire 1 5 rst $end
$var wire 1 9 z $end
$var parameter 3 F ADD $end
$var parameter 3 G CHECK $end
$var parameter 3 H END $end
$var parameter 3 I SHIFT $end
$var parameter 3 J START $end
$var reg 1 < add $end
$var reg 4 K count [3:0] $end
$var reg 1 @ done $end
$var reg 1 ; reset $end
$var reg 1 : sh $end
$var reg 3 L state [2:0] $end
$var reg 320 M state_name [320:1] $end
$upscope $end
$scope module lsr0 $end
$var wire 1 , clk $end
$var wire 4 N in_A [3:0] $end
$var wire 1 ; load $end
$var wire 1 : shift $end
$var reg 8 O s_A [7:0] $end
$upscope $end
$scope module rsr0 $end
$var wire 1 , clk $end
$var wire 4 P in_B [3:0] $end
$var wire 1 ; load $end
$var wire 1 : shift $end
$var reg 4 Q s_B [3:0] $end
$upscope $end
$upscope $end
$upscope $end
$scope begin TEST_CASE $end
$upscope $end
$upscope $end
$enddefinitions $end
$comment Show the parameter values. $end
$dumpall
b0 J
b10 I
b100 H
b1 G
b11 F
b10100 )
$end
#0
$dumpvars
bx Q
b11 P
bx O
b11 N
b101001101010100010000010101001001010100 M
b0 L
bx K
xE
0D
bx C
b0 B
bx A
0@
b0 ?
bx >
bx =
0<
0;
0:
09
08
b11 7
b11 6
05
04
b0 3
b0 2
b0 1
b0 0
b110011 /
0.
0-
0,
b11 +
b11 *
0(
b110011 '
b0 &
b0 %
b0 $
b0 #
b0 "
1!
$end
#10000
b0 K
1;
1,
#20000
1E
1.
b11 >
b11 A
b11 O
b11 =
b11 C
b11 Q
0,
#30000
1,
#40000
0.
0,
#50000
1,
#60000
0,
#70000
1,
#80000
0,
#90000
1,
#100000
0,
#110000
1,
#120000
0,
#130000
18
b1 &
b1 0
1-
1,
#140000
0,
#150000
b100001101001000010001010100001101001011 M
b1 L
1,
#160000
0,
#170000
b10000010100010001000100 M
b11 L
0;
1,
08
b0 &
b0 0
0-
#180000
0,
#190000
b101001101001000010010010100011001010100 M
b10 L
1<
1,
#200000
b11 "
b11 $
b11 2
b11 ?
b11 B
0,
#210000
b100001101001000010001010100001101001011 M
b1 L
0<
1:
1,
#220000
b110 >
b110 A
b110 O
b1 =
b1 C
b1 Q
0,
#230000
b10000010100010001000100 M
b11 L
0:
1,
#240000
0,
#250000
b101001101001000010010010100011001010100 M
b10 L
1<
1,
#260000
b1001 "
b1001 $
b1001 2
b1001 ?
b1001 B
0,
#270000
b100001101001000010001010100001101001011 M
b1 L
0<
1:
1,
#280000
0E
19
1D
b0 =
b0 C
b0 Q
b1100 >
b1100 A
b1100 O
0,
#290000
b101001101001000010010010100011001010100 M
b10 L
0:
1,
#300000
0,
#310000
b10001010100111001000100 M
b100 L
1:
1,
#320000
b11000 >
b11000 A
b11000 O
0,
#330000
1(
b1 K
0:
b10 %
b10 3
1@
1,
#340000
0,
#350000
b10 K
1,
#360000
0,
#370000
b11 K
1,
#380000
0,
#390000
b100 K
1,
#400000
0,
#410000
b101 K
1,
#420000
0,
#430000
b110 K
1,
#440000
0,
#450000
b111 K
1,
#460000
0,
#470000
b1000 K
1,
#480000
0,
#490000
b1001 K
1,
#500000
0,
#510000
b101001101010100010000010101001001010100 M
b0 L
b1010 K
1,
#520000
0,
#530000
0(
b0 K
1;
b0 %
b0 3
0@
1,
#540000
1E
09
0D
b0 "
b0 $
b0 2
b0 ?
b0 B
b11 >
b11 A
b11 O
b11 =
b11 C
b11 Q
0,
